{"logLevel":"debug","message":"multithreading is set to false"}
{"logLevel":"debug","message":"Using reflection to scan dependencies for gauge implementations..."}
log4j:WARN No appenders could be found for logger (io.grpc.netty.shaded.io.netty.util.internal.logging.InternalLoggerFactory).
log4j:WARN Please initialize the log4j system properly.
log4j:WARN See http://logging.apache.org/log4j/1.2/faq.html#noconfig for more info.
{"logLevel":"debug","message":"gauge-java took 759milliseconds to load and scan. This should be less than 'runner_connection_timeout' config value."}
{"logLevel":"debug","message":"run 'gauge config runner_connection_timeout' and verify that it is < 759"}
{"logLevel":"debug","message":"starting gRPC server..."}
{"logLevel":"debug","message":"started gRPC server on port 57008"}
{"logLevel":"info","message":"Listening on port:57008"}
{"logLevel":"debug","message":"Scanning packages for steps"}
{"logLevel":"debug","message":"Comparing 'AnaSayfa.bekleme' and 'AnaSayfa.bekleme'"}
{"logLevel":"debug","message":"Found 4 saniye bekle in current project scope."}
{"logLevel":"debug","message":"Comparing 'AnaSayfa.implementation1' and 'AnaSayfa.implementation1'"}
{"logLevel":"debug","message":"Found Anasayfaya git in current project scope."}
{"logLevel":"debug","message":"Scanning packages for hooks"}
{"logLevel":"debug","message":"Scanned steps (using static parsing + reflections): "}
{"logLevel":"debug","message":"\t4 saniye bekle : public void bekleme() throws InterruptedException"}
{"logLevel":"debug","message":"\tAnasayfaya git : public void implementation1()"}
-----Senaryo başlangıcı----
Starting ChromeDriver 87.0.4280.88 (89e2380a3e36c3464b5dd1302349b1382549290d-refs/branch-heads/4280@{#1761}) on port 18379
Only local connections are allowed.
Please see https://chromedriver.chromium.org/security-considerations for suggestions on keeping ChromeDriver safe.
ChromeDriver was started successfully.
Oca 18, 2021 10:12:08 ÖÖ org.openqa.selenium.remote.ProtocolHandshake createSession
INFO: Detected dialect: W3C
driver calisti
{"logLevel":"debug","message":"Executing '4 saniye bekle' using 'class AnaSayfa.bekleme"}
-----Senaryo sonu----
